{
  "name": "order_data_template",
  "country-code": "UK",
  "description": "orders",
  "type": "facts",
  "version": "1.0",
  "no_of_columns" : 53,

  "formats" : ["%d-%m-%Y"],
  "columns": [
    {
      "name": "guuid",
      "to": "guuid",
      "type_to": "string",
      "type": "string",
      "nullable": false,
      "format": "",
      "optional": true,
      "pii": "nc",
      "length": 64,
      "description": "guuid",
      "enum": []
    },
    {
      "name": "unique_row_id",
      "to": "unique_row_id",
      "type_to": "string",
      "type": "string",
      "nullable": false,
      "format": "",
      "optional": true,
      "pii": "nc",
      "length": 64,
      "description": "created from combining market place code and action id",
      "enum": []
    },
    {
      "name": "market_place_code",
      "to": "market_place_code",
      "type_to": "string",
      "type": "string",
      "nullable": false,
      "format": "",
      "optional": true,
      "pii": "nc",
      "length": 64,
      "description": "code to identify the organised market place",
      "enum": []
    },
    {
      "name": "Persistent Order ID",
      "to": "persistent_order_id",
      "type_to": "int",
      "type": "string",
      "nullable": false,
      "format": "",
      "optional": false,
      "pii": "nc",
      "length": 64,
      "description": "",
      "enum": []
    },
    {
      "name": "Action ID",
      "to": "action_id",
      "type_to": "int",
      "type": "string",
      "nullable": false,
      "format": "",
      "optional": false,
      "pii": "nc",
      "length": 64,
      "description": "Unique ID to this action/row",
      "enum": [],
      "unique": true
    },
    {
      "name": "Timestamp UTC",
      "to": "timestamp_utc",
      "type_to": "date",
      "type": "string",
      "nullable": false,
      "format": "",
      "optional": false,
      "pii": "nc",
      "length": 64,
      "description": "The time that this action took place (always in UTC)",
      "enum": []
    },
    {
      "name": "Gas or Power",
      "to": "gas_or_power",
      "type_to": "string",
      "type": "string",
      "nullable": false,
      "format": "",
      "optional": false,
      "pii": "nc",
      "length": 64,
      "description": "Is this a gas or power product?",
      "enum": ["Gas", "Power"]
    },
    {
      "name": "Product Original",
      "to": "product_original",
      "type_to": "string",
      "type": "string",
      "nullable": false,
      "format": "",
      "optional": false,
      "pii": "nc",
      "length": 64,
      "description": "original product name",
       "enum": []
    },
    {
      "name": "Period 1 Original",
      "to": "period_1_original",
      "type_to": "string",
      "type": "string",
      "nullable": true,
      "format": "",
      "optional": false,
      "pii": "nc",
      "length": 64,
      "description": "first period of product",
      "enum": []
    },
    {
      "name": "Period 2 Original",
      "to": "period_2_original",
      "type_to": "string",
      "type": "string",
      "nullable": true,
      "format": "",
      "optional": false,
      "pii": "nc",
      "length": 64,
      "description": "second period of product",
      "enum": []
    },
    {
      "name": "Product Block",
      "to": "product_block",
      "type_to": "string",
      "type": "string",
      "nullable": false,
      "format": "",
      "optional": false,
      "pii": "nc",
      "length": 250,
      "description": "Basic type of product (e.g. baseload). See possible values",
      "enum": ["NBP", "NBPEFP", "NBPUSDMMBtu", "ZeebruggeNBP", "Zeebrugge"]
    },
    {
      "name": "Product Other",
      "to": "product_other",
      "type_to": "string",
      "type": "string",
      "nullable": true,
      "format": "",
      "optional": false,
      "pii": "nc",
      "length": 26,
      "enum": ["ice", "heren", "pegas", "ocm", "cme", "ipe", "Argus", "OtherClearing", "OtherIndex", "eex", "n2ex", "leba", "ukhourfeed", "tas"],
      "description": "Other indicator of product type if appropriate. See possible values"
    },
    {
      "name": "Product Spread",
      "to": "product_spread",
      "type_to": "string",
      "type": "string",
      "nullable": true,
      "format": "",
      "optional": false,
      "pii": "nc",
	  "length": 20,
      "enum": ["spread"],
      "description": "Indication if this is a spread or not"
    },
    {
      "name": "Option",
      "to": "option",
      "type_to": "string",
      "type": "string",
      "nullable": true,
      "format": "",
      "optional": true,
      "pii": "nc",
	  "length": 20,
      "enum": ["option"],
      "description": "option for product"
    },
    {
      "name": "Option Type",
      "to": "option_type",
      "type_to": "string",
      "type": "string",
      "nullable": true,
      "format": "",
      "optional": true,
      "pii": "nc",
	  "length": 20,
      "enum": ["put", "call", "other"],
      "description": "option_type for product"
    },
    {
      "name": "Product Period 1 Duration",
      "to": "product_period_1_duration",
      "type_to": "string",
      "type": "string",
      "nullable": false,
      "format": "",
      "optional": false,
      "pii": "nc",
      "length": 50,
      "enum": ["month", "day", "days", "week", "weekdays", "weekend", "holidayweekend", "month", "quarter", "season",
      "year", "balanceofmonth", "balanceofweek", "monthsplit", "other"],
      "description": ""
    },
    {
      "name": "product_period_1_descriptor",
      "to": "product_period_1_descriptor",
      "type_to": "string",
      "type": "string",
      "nullable": false,
      "format": "",
      "optional": true,
      "pii": "nc",
      "length": 50,
      "enum": [],
      "description": ""
    },
    {
     "name":"Product Period 1 Start Local Time",
      "to": "product_period_1_start_local_time",
      "type_to": "string",
      "type": "string",
      "nullable": true,
      "format": "",
      "optional": false,
      "pii": "nc",
      "length": 64,
      "enum": [],
      "description": ""
    },
    {
      "name": "Product Period 1 End Local Time",
      "to": "product_period_1_end_local_time",
      "type_to": "string",
      "type": "string",
      "nullable": true,
      "format": "",
      "optional": false,
      "pii": "nc",
      "length": 64,
      "enum": [],
      "description": "When the delivery period ends (local time)"
    },
    {
      "name": "Product Period 2 Duration",
      "to": "product_period_2_duration",
      "type_to": "string",
      "type": "string",
      "nullable": true,
      "format": "",
      "optional": false,
      "pii": "nc",
      "length": 50,
      "enum": ["Month", "Day", "Days", "Week", "Weekdays", "Weekend", "HolidayWeekend", "Month", "Quarter", "Season",
      "Year", "BalanceofMonth", "BalanceofWeek", "MonthSplit", "other"],
      "description": "For calendar spreads only: Standard length of second delivery period. See possible values"
    },
    {
      "name": "product_period_2_descriptor",
      "to": "product_period_2_descriptor",
      "type_to": "string",
      "type": "string",
      "nullable": true,
      "format": "",
      "optional": true,
      "pii": "nc",
      "length": 50,
      "enum": [],
      "description": "Describes the delivery period 2 if applicable (calendar spreads)"
    },
    {
      "name":"Product Period 2 Start Local Time",
      "to": "product_period_2_start_local_time",
      "type_to": "string",
      "type": "string",
      "nullable": true,
      "format": "",
      "optional": false,
      "pii": "nc",
      "length": 64,
      "enum": [],
      "description":"For calendar spreads only: When the second delivery period starts (local time)"
    },
    {
      "name": "Product Period 2 End Local Time",
      "to": "product_period_2_end_local_time",
      "type_to": "string",
      "type": "string",
      "nullable": true,
      "format": "",
      "optional": false,
      "pii": "nc",
      "length": 64,
      "enum": [],
      "description": "For calendar spreads only: When the second delivery period ends (local time)"
    },
    {
      "name": "Bid or Offer",
      "to": "bid_or_offer",
      "type_to": "string",
      "type": "string",
      "nullable": false,
      "format": "",
      "optional": false,
      "pii": "nc",
      "length": 10,
      "enum": ["bid", "offer"],
      "description": "Is this a bid (to buy) or offer (to sell)?"
    },
    {
      "name": "Price",
      "to": "price",
      "type_to": "float",
      "type": "string",
      "nullable": false,
      "format": "",
      "optional": false,
      "pii": "nc",
      "length": 20,
      "enum": [],
      "range": [-10,10],
      "description": "Price in £/MWh or £/therm"
    },
    {
      "name": "Price Currency",
      "to": "price_currency",
      "type_to": "string",
      "type": "string",
      "nullable": false,
      "format": "",
      "optional": false,
      "pii": "nc",
      "length": 20,
      "enum": ["GBP","BGN","CHF","CZK","DKK","EUR","HRK","HUF","ISK","NOK","PLN","RON","SEK","USD"],
      "description": "Price in £/MWh or £/therm"
    },
    {
      "name": "Price Units",
      "to": "price_units",
      "type_to": "string",
      "type": "string",
      "nullable": false,
      "format": "",
      "optional": false,
      "pii": "nc",
      "length": 20,
      "enum": ["KWh","MWh","GWh","Therm","Ktherm","Mtherm","cm","mcm","Btu","MMBtu","MJ","MMJ","100MJ","GJ"],
      "description": "Price in £/MWh or £/therm"
    },
    {
      "name": "Quantity",
      "to": "quantity",
      "type_to": "float",
      "type": "string",
      "nullable": false,
      "format": "",
      "optional": false,
      "pii": "nc",
      "length": 25,
      "enum": [],
      "range": [0,5500],
      "description": "Quantity of MWs or ktherms bid/offered"
    },
    {
      "name": "Hidden Quantity",
      "to": "hidden_quantity",
      "type_to": "int",
      "type": "string",
      "nullable": true,
      "format": "",
      "optional": false,
      "pii": "nc",
      "length": 20,
      "enum": [],
      "range": [0,10000],
      "description": "Any hidden quantity placed within the order when known by broker"
    },
    {
      "name": "Quantity Units",
      "to": "quantity_units",
      "type_to": "string",
      "type": "string",
      "nullable": false,
      "format": "",
      "optional": false,
      "pii": "nc",
      "length": 25,
      "enum": ["KW","KWh/h","KWh/d","MW","MWh/h","MWh/d","GW","GWh/h","GWh/d","Therm/d","Ktherm/d","Mtherm/d",
               "cm/d","mcm/d","Btu/d","MMBtu/d","MJ/d","100MJ/d","MMJ/d","GJ/d", "10kMMBtu/month"],
      "description": "Ktherm/d or MW"
    },
    {
      "name": "Volume",
      "to": "volume",
      "type_to": "float",
      "type": "string",
      "nullable": true,
      "format": "",
      "optional": false,
      "pii": "nc",
      "length": 25,
      "enum": [],
      "description": "The total MWh or therm volume of the order"
    },
    {
      "name": "Volume Units",
      "to": "volume_units",
      "type_to": "string",
      "type": "string",
      "nullable": false,
      "format": "",
      "optional": false,
      "pii": "nc",
      "length": 25,
      "enum": ["KWh","MWh","GWh","Therm","Ktherm","Mtherm","cm","mcm","Btu","MMBtu","MJ","MMJ","100MJ","GJ"],
      "description": "Therm"
    },
    {
      "name": "Company Name",
      "to": "company_name",
      "type_to": "string",
      "type": "string",
      "nullable": false,
      "format": "",
      "optional": false,
      "default-value" : "NULL",
      "pii": "yes",
      "length": 100,
      "enum": [],
      "description": "The name of the company which placed the bid or offer"
    },
    {
      "name": "company_standard",
      "to": "company_standard",
      "type_to": "string",
      "type": "string",
      "nullable": false,
      "format": "",
      "optional": true,
      "default-value" : "NULL",
      "pii": "yes",
      "length": 100,
      "enum": [],
      "description": "The standardised company name based on our internal table"
    },
    {
      "name": "company_group",
      "to": "company_group",
      "type_to": "string",
      "type": "string",
      "nullable": false,
      "format": "",
      "optional": true,
      "default-value" : "NULL",
      "pii": "yes",
      "length": 100,
      "enum": [],
      "description": "The standardised company group based on our internal table"
    },
    {
      "name": "Member Company Name",
      "to": "member_company_name",
      "type_to": "string",
      "type": "string",
      "nullable": true,
      "optional": true,
      "default-value" : "NULL",
      "pii": "yes",
      "length": 100,
      "enum": [],
      "description": "The name of the permissioning member company"
    },
    {
      "name": "Trader Name",
      "to": "trader_name",
      "type_to": "string",
      "type": "string",
      "format": "",
      "nullable": false,
      "format": "",
      "optional": false,
      "default-value" : "NULL",
      "pii": "yes",
      "length": 100,
      "enum": [],
      "description": "The first name and surname of the trader which placed the bid or offer."
    },
    {
      "name": "Trader Name Standard",
      "to": "trader_name_standard",
      "type_to": "string",
      "type": "string",
      "nullable": true,
      "format": "",
      "optional": true,
      "default-value" : "NULL",
      "pii": "yes",
      "length": 100,
      "enum": [],
      "description": "The standardised trader names."
    },
    {
      "name": "User Name",
      "to": "user_name",
      "type_to": "string",
      "type": "string",
      "nullable": true,
      "format": "",
      "optional": false,
      "default-value" : "NULL",
      "pii": "yes",
      "length": 100,
      "enum": [],
      "description": "The name of the person who took this action in the name of the trader, as this may differ from the trader themselves. Full first name and surname"
    },
    {
      "name": "User Name Standard",
      "to": "user_name_standard",
      "type_to": "string",
      "type": "string",
      "nullable": true,
      "format": "",
      "optional": true,
      "default-value" : "NULL",
      "pii": "yes",
      "length": 100,
      "enum": [],
      "description": "The standardised user names."
    },
    {
      "name": "Order Action",
      "to": "order_action",
      "type_to": "string",
      "type": "string",
      "nullable": false,
      "format": "",
      "optional": false,
      "default-value" : "NULL",
      "pii": "nc",
      "length":20,
      "enum":["Inserted","Updated","Dealt","Cancelled","PartiallyDealt","Expired","Dealt(HiddenQuantity)"],
      "description": "What action is being taken in relation to the order e.g. insert, update…"
    },
    {
      "name": "Price State (Firm or Withheld)",
      "to": "price_state",
      "type_to": "string",
      "type": "string",
      "nullable": false,
      "format": "",
      "optional": false,
      "default-value" : "NULL",
      "pii": "nc",
      "length": 100,
      "enum": ["firm", "withheld"],
      "description": "Whether an order is firm or has been withheld"
    },
    {
      "name": "AON (Y or N)",
      "to": "aon_y_n",
      "type_to": "string",
      "type": "string",
      "nullable": false,
      "format": "",
      "optional": false,
      "default-value" : "NULL",
      "pii": "nc",
      "length": 100,
      "enum": ["y","n"],
      "description": "Whether order is ‘All or None/Nothing’, Y and N will get converted to true and false after loading data file. "
    },
    {
      "name": "Order Type",
      "to": "order_type",
      "type_to": "string",
      "type": "string",
      "nullable": true,
      "format": "",
      "optional": false,
      "default-value" : "NULL",
      "pii": "nc",
      "length": 100,
      "enum": ["GoodTillCancelled", "GoodTillDay","GoodTillDate"],
      "description": "Order type category according to options"
    },
    {
      "name": "Settlement Method",
      "to": "settlement_method",
      "type_to": "string",
      "type": "string",
      "nullable": true,
      "format": "",
      "optional": true,
      "pii": "nc",
      "length": 100,
      "enum": ["physical", "cash", "optional"],
      "description": "Whether the contract is settled physically, in cash, optional or other."
    },
	{
      "name": "Option Strike Price",
      "to": "option_strike_price",
      "type_to": "float",
      "type": "string",
      "nullable": true,
      "format": "",
      "optional": true,
      "pii": "nc",
      "length": 100,
      "enum": [],
      "description": "ICE columns -> If Option: Strike price of the option"
    },
	{
      "name": "Option Style",
      "to": "option_style",
      "type_to": "string",
      "type": "string",
      "nullable": true,
      "format": "",
      "optional": true,
      "pii": "nc",
      "length": 100,
      "enum": ["american", "bermudan", "european", "asian", "other"],
      "description": "ICE columns -> If Option: Indicates whether the option may be exercised only at a fixed date (European and Asian style), a series of pre-specified dates (Bermudan) or at any time during the life of the contract (American style)."
    },
	{
      "name": "Option Exercise Date",
      "to": "option_exercise_date",
      "type_to": "string",
      "type": "string",
      "nullable": true,
      "format": "",
      "optional": true,
      "pii": "nc",
      "length": 100,
      "enum": [],
      "description": "ICE columns -> If Option: The date or dates when the option is exercised. If more than one, further columns may be used."
    },
	{
      "name": "ICE Order Type",
      "to": "ice_order_type",
      "type_to": "string",
      "type": "string",
      "nullable": true,
      "format": "",
      "optional": true,
      "pii": "nc",
      "length": 100,
      "enum": ["lim", "mar"],
      "description": "ICE columns -> Indicates a Limit or Market order."
    },
	{
      "name": "ICE Order Condition",
      "to": "ice_order_condition",
      "type_to": "string",
      "type": "string",
      "nullable": true,
      "format": "",
      "optional": true,
      "pii": "nc",
      "length": 100,
      "enum": ["stop", "fak", "fok", "faf", "mowp", "sowp"],
      "description": "ICE columns -> Indicates a condition placed on this order such as a stop order, a fill-and-kill, a fill-or-kill or fill-and-float."
    },
	{
      "name": "ICE Order Limit Price",
      "to": "ice_order_limit_price",
      "type_to": "float",
      "type": "string",
      "nullable": true,
      "format": "",
      "optional": true,
      "pii": "nc",
      "length": 100,
      "enum": [],
      "description": "ICE columns -> If this is a stop order, this is the 'trigger' price. If the last traded price is above (bid) or below (offer) this price the order becomes inactive."
    },
	{
      "name": "ICE Product Condition",
      "to": "ice_product_condition",
      "type_to": "string",
      "type": "string",
      "nullable": true,
      "format": "",
      "optional": true,
      "pii": "nc",
      "length": 100,
      "enum": ["tas", "tic", "tap", "bic"],
      "description": "ICE columns -> Indicates any condition on when this is traded e.g. Trade at Settlement (TAS)."
    }

  ],
  "conditional_validation": []
}
