{
  "name": "trade_data_template",
  "country-code": "UK",
  "description": "trades",
  "type": "facts",
  "version": "1.0",
  "no_of_columns" : 59,

  "formats" : ["%d-%m-%Y"],
  "columns": [
    {
      "name": "guuid",
      "to": "guuid",
      "type_to": "string",
      "type": "string",
      "nullable": false,
      "format": "",
      "optional": true,
      "pii": "nc",
      "length": 64,
      "description": "guuid",
      "enum": []
    },
    {
      "name": "unique_row_id",
      "to": "unique_row_id",
      "type_to": "string",
      "type": "string",
      "nullable": false,
      "format": "",
      "optional": true,
      "pii": "nc",
      "length": 64,
      "description": "created from combining market place code and action id",
      "enum": []
    },
	{
      "name": "market_place_code",
      "to": "market_place_code",
      "type_to": "string",
      "type": "string",
      "nullable": false,
      "format": "",
      "optional": true,
      "pii": "nc",
      "length": 64,
      "description": "code to identify the organised market place",
      "enum": []
    },
	{
      "name": "Cancelled Trade (Y or N)",
      "to": "cancelled_trade",
      "type_to": "string",
      "type": "string",
      "nullable": false,
      "format": "",
      "optional": false,
      "pii": "nc",
      "length": 64,
      "description": "Y and N will get converted to true and false after loading data file.",
      "enum": ["y","n"]
    },
    {
      "name": "Trade ID",
      "to": "trade_id",
      "type_to": "int",
      "type": "string",
      "nullable": false,
      "format": "",
      "optional": false,
      "pii": "nc",
      "length": 64,
      "description": "",
       "enum": []
    },
    {
      "name": "Corresponding Order ID",
      "to": "corresponding_order_id",
      "type_to": "int",
      "type": "string",
      "nullable": true,
      "format": "",
      "optional": false,
      "pii": "nc",
      "length": 64,
      "description": "",
      "enum": []
    },
    {
      "name": "Timestamp UTC",
      "to": "timestamp_utc",
      "type_to": "date",
      "type": "string",
      "nullable": false,
      "format": "",
      "optional": false,
      "pii": "nc",
      "length": 64,
      "description": "",
      "enum": []
    },
    {
      "name": "2nd Timestamp UTC",
      "to": "2nd_timestamp_utc",
      "type_to": "date",
      "type": "string",
      "nullable": true,
      "format": "",
      "optional": true,
      "pii": "nc",
      "length": 64,
      "description": "",
      "enum": []
    },
    {
      "name": "Gas or Power",
      "to": "gas_or_power",
      "type_to": "string",
      "type": "string",
      "nullable": false,
      "format": "",
      "optional": false,
      "pii": "nc",
      "length": 64,
      "description": "",
      "enum": ["gas", "power"]
    },
    {
      "name": "Product Original",
      "to": "product_original",
      "type_to": "string",
      "type": "string",
      "nullable": false,
      "format": "",
      "optional": false,
      "pii": "nc",
      "length": 64,
      "description": "original product name",
      "enum": []
    },
    {
      "name": "Period 1 Original",
      "to": "period_1_original",
      "type_to": "string",
      "type": "string",
      "nullable": true,
      "format": "",
      "optional": true,
      "pii": "nc",
      "length": 64,
      "description": "first period of product",
      "enum": []
    },
    {
      "name": "Period 2 Original",
      "to": "period_2_original",
      "type_to": "string",
      "type": "string",
      "nullable": true,
      "format": "",
      "optional": true,
      "pii": "nc",
      "length": 64,
      "description": "second period of product",
      "enum": []
    },
    {
      "name": "Product Block",
      "to": "product_block",
      "type_to": "string",
      "type": "string",
      "nullable": false,
      "format": "",
      "optional": false,
      "pii": "nc",
      "length": 250,
      "description": "",
      "enum": ["Baseload", "BaseloadWE", "Peakload", "BasePeakSpread", "SparkSpread", "PeakSpark", "Block1", "Block2", "Block3", "Block4", "Block5",
        "Block6", "Overnights", "Block3and4", "ExtendedPeaks", "ExtendedPeaksWD", "OffPeaks", "Block1WD", "Block2WD", "Block3WD",
        "Block4WD", "Block5WD", "Block6WD", "OvernightsWD", "Block3and4WD","Block1A", "Block1B", "Block2A", "Block2B",
        "Block3A", "Block3B", "Block4A", "Block4B", "Block5A", "Block5B", "Block6A", "Block6B", "Other", "Hour01",
        "Hour02", "Hour03", "Hour04", "Hour05", "Hour06", "Hour07", "Hour08", "Hour09", "Hour10", "Hour11", "Hour12",
        "Hour13", "Hour14", "Hour15", "Hour16", "Hour17", "Hour18", "Hour19", "Hour20", "Hour21", "Hour22", "Hour23",
        "Hour24", "Hour25", "HalfHour01", "HalfHour02", "HalfHour03", "HalfHour04", "HalfHour05", "HalfHour06",
        "HalfHour07", "HalfHour08", "HalfHour09", "HalfHour10", "HalfHour11", "HalfHour12", "HalfHour13", "HalfHour14",
        "HalfHour15", "HalfHour16", "HalfHour17", "HalfHour18", "HalfHour19", "HalfHour20", "HalfHour21", "HalfHour22",
        "HalfHour23", "HalfHour24", "HalfHour25", "HalfHour26", "HalfHour27", "HalfHour28", "HalfHour29", "HalfHour30",
        "HalfHour31", "HalfHour32", "HalfHour33", "HalfHour34", "HalfHour35", "HalfHour36", "HalfHour37", "HalfHour38",
        "HalfHour39", "HalfHour40", "HalfHour41", "HalfHour42", "HalfHour43", "HalfHour44", "HalfHour45", "HalfHour46",
        "HalfHour47", "HalfHour48", "HalfHour49", "HalfHour50"]
    },
    {
      "name": "Product Other",
      "to": "product_other",
      "type_to": "string",
      "type": "string",
      "nullable": true,
      "format": "",
      "optional": false,
      "pii": "nc",
      "length": 26,
      "enum": ["ice", "heren", "pegas", "ocm", "cme", "ipe", "Argus", "OtherClearing", "OtherIndex","eex", "n2ex", "leba", "ukhourfeed", "tas"],
      "description":  "Other indicator of product type if appropriate. See possible values"
    },
    {
      "name": "Product Spread",
      "to": "product_spread",
      "type_to": "string",
      "type": "string",
      "nullable": true,
      "format": "",
      "optional": false,
      "pii": "nc",
      "enum": ["spread"],
      "description": ""
    },
    {
      "name": "Option",
      "to": "option",
      "type_to": "string",
      "type": "string",
      "nullable": true,
      "format": "",
      "optional": true,
      "pii": "nc",
	  "length": 20,
      "enum": ["option"],
      "description": "option for product"
    },
    {
      "name": "Option Type",
      "to": "option_type",
      "type_to": "string",
      "type": "string",
      "nullable": true,
      "format": "",
      "optional": true,
      "pii": "nc",
	  "length": 20,
      "enum": ["put", "call", "other"],
      "description": "option_type for product"
    },
    {
      "name": "Product Period 1 Duration",
      "to": "product_period_1_duration",
      "type_to": "string",
      "type": "string",
      "nullable": false,
      "format": "",
      "optional": false,
      "pii": "nc",
      "length": 20,
      "enum": ["Month", "Day", "Days", "Week", "Weekdays", "Weekend", "HolidayWeekend", "Month", "Quarter", "Season",
      "Year", "BalanceofMonth", "BalanceofWeek", "MonthSplit", "other"],
      "description": ""
    },
    {
      "name": "product_period_1_descriptor",
      "to": "product_period_1_descriptor",
      "type_to": "string",
      "type": "string",
      "nullable": false,
      "format": "",
      "optional": true,
      "pii": "nc",
      "length": 50,
      "enum": [],
      "description": ""
    },
    {
      "name": "Product Period 1 Start Local Time",
      "to": "product_period_1_start_local_time",
      "type_to": "date",
      "type": "string",
      "nullable": true,
      "format": "",
      "optional": false,
      "pii": "nc",
      "length": 64,
      "enum": [],
      "description": ""
    },
    {
      "name": "Product Period 1 End Local Time",
      "to": "product_period_1_end_local_time",
      "type_to": "date",
      "type": "string",
      "nullable": true,
      "format": "",
      "optional": false,
      "pii": "nc",
      "length": 64,
      "enum": [],
      "description": ""
    },
    {
      "name": "Product Period 2 Duration",
      "to": "product_period_2_duration",
      "type_to": "string",
      "type": "string",
      "nullable": true,
      "format": "",
      "optional": false,
      "pii": "nc",
      "length": 20,
      "enum": ["Month", "Day", "Days", "Week", "Weekdays", "Weekend", "HolidayWeekend", "Month", "Quarter", "Season",
      "Year", "BalanceofMonth", "BalanceofWeek", "MonthSplit", "other"],
      "description": ""
    },
    {
      "name": "product_period_2_descriptor",
      "to": "product_period_2_descriptor",
      "type_to": "string",
      "type": "string",
      "nullable": true,
      "format": "",
      "optional": true,
      "pii": "nc",
      "length": 50,
      "enum": [],
      "description": ""
    },
    {
      "name": "Product Period 2 Start Local Time",
      "to": "product_period_2_start_local_time",
      "type_to": "date",
      "type": "string",
      "nullable": true,
      "format": "",
      "optional": false,
      "pii": "nc",
      "length": 64,
      "enum": [],
      "description":""
    },
    {
      "name": "Product Period 2 End Local Time",
      "to": "product_period_2_end_local_time",
      "type_to": "date",
      "type": "string",
      "nullable": true,
      "format": "",
      "optional": false,
      "pii": "nc",
      "length": 64,
      "enum": [],
      "description": ""

    },
    {
      "name": "Price",
      "to": "price",
      "type_to": "float",
      "type": "string",
      "nullable": false,
      "format": "",
      "optional": false,
      "pii": "nc",
      "length": 20,
      "enum": [],
      "range": [-50,2400],
      "description": ""
    },
    {
      "name": "Price Currency",
      "to": "price_currency",
      "type_to": "string",
      "type": "string",
      "nullable": false,
      "format": "",
      "optional": false,
      "pii": "nc",
      "length": 20,
      "enum": ["GBP","BGN","CHF","CZK","DKK","EUR","HRK","HUF","ISK","NOK","PLN","RON","SEK","USD"],
      "description": "Price in £/MWh or £/therm"
    },
    {
      "name": "Price Units",
      "to": "price_units",
      "type_to": "string",
      "type": "string",
      "nullable": false,
      "format": "",
      "optional": false,
      "pii": "nc",
      "length": 20,
      "enum": ["KWh","MWh","GWh","Therm","Ktherm","Mtherm","cm","mcm","Btu","MMBtu","MJ","MMJ","100MJ","GJ"],
      "description": "Price in £/MWh or £/therm"
    },
    {
      "name": "Quantity",
      "to": "quantity",
      "type_to": "float",
      "type": "string",
      "nullable": false,
      "format": "",
      "optional": false,
      "pii": "nc",
      "length": 100,
      "enum": [],
      "range": [0,5500],
      "description": ""
    },
    {
      "name": "Quantity Units",
      "to": "quantity_units",
      "type_to": "string",
      "type": "string",
      "nullable": false,
      "format": "",
      "optional": false,
      "pii": "nc",
      "length": 25,
      "enum": ["KW","KWh/h","KWh/d","MW","MWh/h","MWh/d","GW","GWh/h","GWh/d","Therm/d","Ktherm/d","Mtherm/d",
               "cm/d","mcm/d","Btu/d","MMBtu/d","MJ/d","100MJ/d","MMJ/d","GJ/d", "10kMMBtu/month"],
      "description": "Ktherm/d or MW"
    },
    {
      "name": "Volume",
      "to": "volume",
      "type_to": "float",
      "type": "string",
      "nullable": true,
      "format": "",
      "optional": false,
      "pii": "nc",
      "length": 100,
      "enum": [],
      "description": ""
    },
    {
      "name": "Volume Units",
      "to": "volume_units",
      "type_to": "string",
      "type": "string",
      "nullable": false,
      "format": "",
      "optional": false,
      "pii": "nc",
      "length": 25,
      "enum": ["KWh","MWh","GWh","Therm","Ktherm","Mtherm","cm","mcm","Btu","MMBtu","MJ","MMJ","100MJ","GJ"],
      "description": "Therm"
    },
    {
      "name": "Company Name",
      "to": "company_name",
      "type_to": "string",
      "type": "string",
      "nullable": false,
      "format": "",
      "optional": false,
      "default-value" : "NULL",
      "pii": "yes",
      "length": 100,
      "enum": [],
      "description": ""
    },
    {
      "name": "company_standard",
      "to": "company_standard",
      "type_to": "string",
      "type": "string",
      "nullable": false,
      "format": "",
      "optional": true,
      "default-value" : "NULL",
      "pii": "yes",
      "length": 100,
      "enum": [],
      "description": ""
    },
    {
      "name": "company_group",
      "to": "company_group",
      "type_to": "string",
      "type": "string",
      "nullable": false,
      "format": "",
      "optional": true,
      "default-value" : "NULL",
      "pii": "yes",
      "length": 100,
      "enum": [],
      "description": ""
    },
    {
      "name": "Member Company Name",
      "to": "member_company_name",
      "type_to": "string",
      "type": "string",
      "nullable": true,
      "format": "",
      "optional": true,
      "default-value" : "NULL",
      "pii": "yes",
      "length": 100,
      "enum": [],
      "description": "The name of the permissioning member company"
    },
    {
      "name": "Trader Name",
      "to": "trader_name",
      "type_to": "string",
      "type": "string",
      "nullable":false,
      "format": "",
      "optional": false,
      "default-value" : "NULL",
      "pii": "yes",
      "length": 50,
      "enum": [],
      "description": ""
    },
    {
      "name": "Trader Name Standard",
      "to": "trader_name_standard",
      "type_to": "string",
      "type": "string",
      "nullable": true,
      "format": "",
      "optional": true,
      "default-value" : "NULL",
      "pii": "yes",
      "length": 100,
      "enum": [],
      "description": "The standardised trader names."
    },
    {
      "name": "User Name",
      "to": "user_name",
      "type_to": "string",
      "type": "string",
      "nullable": true,
      "format": "",
      "optional": false,
      "default-value" : "NULL",
      "pii": "yes",
      "length": 50,
      "enum": [],
      "description": ""
    },
    {
      "name": "User Name Standard",
      "to": "user_name_standard",
      "type_to": "string",
      "type": "string",
      "nullable": true,
      "format": "",
      "optional": true,
      "default-value" : "NULL",
      "pii": "yes",
      "length": 100,
      "enum": [],
      "description": "The standardised user names."
    },
    {
      "name": "Aggressor or Initiator",
      "to": "aggressor_or_initiator",
      "type_to": "string",
      "type": "string",
      "nullable": false,
      "format": "",
      "optional": false,
      "default-value" : "NULL",
      "pii": "nc",
      "length": 100,
      "enum": ["aggressor", "initiator"],
      "description": ""
    },
    {
      "name": "A or I",
      "to": "a_or_i",
      "type_to": "string",
      "type": "string",
      "nullable": true,
      "format": "",
      "optional": true,
      "default-value" : "NULL",
      "pii": "nc",
      "length": 6,
      "enum": ["a", "i"],
      "description": ""
    },
    {
      "name": "Action",
      "to": "action",
      "type_to": "string",
      "type": "string",
      "nullable": false,
      "format": "",
      "optional": false,
      "default-value" : "NULL",
      "pii": "nc",
      "length": 100,
      "enum": ["buy", "sell"],
      "description": ""
    },
    {
      "name": "Sleeve (Y or N)",
      "to": "sleeve",
      "type_to": "string",
      "type": "string",
      "nullable": true,
      "format": "",
      "optional": false,
      "default-value" : "NULL",
      "pii": "nc",
      "length": 100,
      "enum": ["y", "n"],
      "description": ""
    },
    {
      "name": "Paid or Given",
      "to": "paid_or_given",
      "type_to": "string",
      "type": "string",
      "nullable": true,
      "format": "",
      "optional": false,
      "default-value" : "NULL",
      "pii": "nc",
      "length": 100,
      "enum": ["paid", "given"],
      "description": ""
    },
    {
      "name": "Manual Deal (Y or N)",
      "to": "manual_deal",
      "type_to": "string",
      "type": "string",
      "nullable": false,
      "format": "",
      "optional": false,
      "default-value" : "NULL",
      "pii": "nc",
      "length": 100,
      "enum": ["y", "n"],
      "description": ""
    },
    {
      "name": "Voice Deal (Y or N)",
      "to": "voice_deal",
      "type_to": "string",
      "type": "string",
      "nullable": false,
      "format": "",
      "optional": false,
      "default-value" : "NULL",
      "pii": "nc",
      "length": 100,
      "enum": ["y", "n"],
      "description": ""
    },
    {
      "name": "PNC (Y or N)",
      "to": "pnc",
      "type_to": "string",
      "type": "string",
      "nullable": false,
      "format": "",
      "optional": false,
      "default-value" : "NULL",
      "pii": "nc",
      "length": 100,
      "enum": ["y", "n"],
      "description": ""
    },
    {
      "name": "Is leg of spread? (Y or N)",
      "to":  "is_leg_of_spread_y_n",
      "type_to": "string",
      "type": "string",
      "nullable": true,
      "format": "",
      "optional": false,
      "default-value" : "NULL",
      "pii": "nc",
      "length": 100,
      "enum": ["y", "n"],
      "description": ""
    },
    {
      "name": "Is leg of SS? (Y or N)",
      "to":  "is_leg_of_ss_y_n",
      "type_to": "string",
      "type": "string",
      "nullable": true,
      "format": "",
      "optional": false,
      "default-value" : "NULL",
      "pii": "nc",
      "length": 100,
      "enum": ["y", "n"],
      "description": ""
    },
    {
      "name": "Settlement Method",
      "to": "settlement_method",
      "type_to": "string",
      "type": "string",
      "nullable": true,
      "format": "",
      "optional": true,
      "pii": "nc",
      "length": 100,
      "enum": ["physical", "cash","optional"],
      "description": "Whether the contract is settled physically, in cash, optional or other."
    },
	{
      "name": "Option Strike Price",
      "to": "option_strike_price",
      "type_to": "float",
      "type": "string",
      "nullable": true,
      "format": "",
      "optional": true,
      "pii": "nc",
      "length": 100,
      "enum": [],
      "description": "ICE columns -> If Option: Strike price of the option"
    },
	{
      "name": "Option Style",
      "to": "option_style",
      "type_to": "string",
      "type": "string",
      "nullable": true,
      "format": "",
      "optional": true,
      "pii": "nc",
      "length": 100,
      "enum": ["american", "bermudan", "european", "asian", "other"],
      "description": "ICE columns -> If Option: Indicates whether the option may be exercised only at a fixed date (European and Asian style), a series of pre-specified dates (Bermudan) or at any time during the life of the contract (American style)."
    },
	{
      "name": "Option Exercise Date",
      "to": "option_exercise_date",
      "type_to": "string",
      "type": "string",
      "nullable": true,
      "format": "",
      "optional": true,
      "pii": "nc",
      "length": 100,
      "enum": [],
      "description": "ICE columns -> If Option: The date or dates when the option is exercised. If more than one, further columns may be used."
    },
	{
      "name": "ICE Trade Type",
      "to": "ice_trade_type",
      "type_to": "string",
      "type": "string",
      "nullable": true,
      "format": "",
      "optional": true,
      "pii": "nc",
      "length": 100,
      "enum": ["block", "efp", "efs", "eoo"],
      "description": "ICE columns -> Indicates a Limit or Market order."
    },
	{
      "name": "ICE Product Condition",
      "to": "ice_product_condition",
      "type_to": "string",
      "type": "string",
      "nullable": true,
      "format": "",
      "optional": true,
      "pii": "nc",
      "length": 100,
      "enum": ["tas", "tic", "tap", "bic"],
      "description": "ICE columns -> Indicates any condition on when this is traded e.g. Trade at Settlement (TAS)."
    }
  ],
  "conditional_validation": []
}
